CalculationMode = gs
FromScratch = yes

%Species
 'Li' | species_full_gaussian | gaussian_width | 0.2
%
%Coordinates
 'Li' | 0.0 | 0.0
%

Dimensions = 2
Radius = 2.5
Spacing = 0.25

ExtraStates = 4
Smearing = 0.5 * ev
SmearingFunction = fermi_dirac
SpinComponents = spin_polarized

LCAOStart = no

FilterPotentials = filter_none

MixField = density

SCFCalculateForces = no
