# nspin         1
# kick mode    0
# kick strength    0.005291772086
# dim           3
# pol(1)           1.000000000000    0.000000000000    0.000000000000
# pol(2)           0.000000000000    1.000000000000    0.000000000000
# pol(3)           0.000000000000    0.000000000000    1.000000000000
# direction    3
# Equiv. axes  0
# wprime           0.000000000000    0.000000000000    1.000000000000
# kick time        0.000000000000
#       Energy         (1/3)*Tr[sigma]    Anisotropy[sigma]      sigma(1,1,1)        sigma(1,2,1)        sigma(1,3,1)        sigma(2,1,1)        sigma(2,2,1)        sigma(2,3,1)        sigma(3,1,1)        sigma(3,2,1)        sigma(3,3,1)    
#        [eV]               [A^2]               [A^2]               [A^2]               [A^2]               [A^2]               [A^2]               [A^2]               [A^2]               [A^2]               [A^2]               [A^2]        
      0.00000000E+00      0.00000000E+00      0.00000000E+00      0.00000000E+00      0.00000000E+00      0.00000000E+00      0.00000000E+00      0.00000000E+00      0.00000000E+00      0.00000000E+00      0.00000000E+00      0.00000000E+00
      0.10000000E-01     -0.21661925E-08      0.59660861E-16     -0.21661925E-08     -0.13850394E-16     -0.12053288E-16     -0.20308971E-16     -0.21661926E-08     -0.19686540E-16      0.43455816E-16      0.44750032E-16     -0.21661925E-08
      0.20000000E-01     -0.86534460E-08      0.36825403E-15     -0.86534460E-08     -0.55336384E-16     -0.48157055E-16     -0.81138841E-16     -0.86534461E-08     -0.78649138E-16      0.17361848E-15      0.17878402E-15     -0.86534458E-08
      0.30000000E-01     -0.19427857E-07      0.54352581E-15     -0.19427857E-07     -0.12426276E-15     -0.10814334E-15     -0.18219906E-15     -0.19427857E-07     -0.17659731E-15      0.38987482E-15      0.40145494E-15     -0.19427857E-07
