################################################################################
# HEADER
# nspin         1
# lmax          1
# kick mode     0
# kick strength    0.005291772086
# dim           3
# pol(1)           1.000000000000    0.000000000000    0.000000000000
# pol(2)           0.000000000000    1.000000000000    0.000000000000
# pol(3)           0.000000000000    0.000000000000    1.000000000000
# direction     1
# Equiv. axes   0
# wprime           0.000000000000    0.000000000000    1.000000000000
# kick time        0.000000000000
# Iter               t              Electronic charge(1)           <x>(1)                  <y>(1)                  <z>(1)         
#[Iter n.]       [hbar/eV]               Electrons                  [A]                     [A]                     [A]           
################################################################################
       0  0.0000000000000000e+00  7.9999999999996829e+00 -1.1030896495201399e-15 -1.4759899726169251e-15  1.6858032834632543e-15
       1  2.2999999999999995e-03  7.9999999998974944e+00 -1.4416163050246014e-03  3.2583101204271318e-15 -2.8461093343146786e-16
       2  4.5999999999999991e-03  7.9999999997943485e+00 -2.8504309432296365e-03 -3.4508267238840418e-15 -9.7771839466901535e-15
       3  6.8999999999999981e-03  7.9999999996917932e+00 -4.2138722192001472e-03  2.9340251053389094e-15 -2.3982426503380979e-15
