CalculationMode = gs
ExperimentalFeatures = yes
TheoryLevel = independent_particles
Dimensions = 3
ParStates = no
MaxwellTestQuadrupole = yes

%Coordinates
'H' | 0.0 | 0.0 | 0.0
%

%StaticMagneticField
 0 | 0 | 0.00005
%
SCFCalculateForces = no

BoxShape = sphere
Radius = 6.0
Spacing = 0.2
ExtraStates = 4

