# -*- coding: utf-8 -*-

UnitsOutput = ev_angstrom

CalculationMode = gs
FromScratch = yes

BoxShape = sphere
Radius = 4*angstrom
Spacing = 0.25*angstrom

%Coordinates
 "C"  |  0.000*angstrom |  0.000*angstrom |  0.000*angstrom
 "H"  | -1.213*angstrom | -0.852*angstrom |  0.000*angstrom
 "H"  |  0.000*angstrom |  0.852*angstrom | -1.213*angstrom
 "H"  |  0.000*angstrom |  0.852*angstrom |  1.213*angstrom
 "H"  |  1.213*angstrom | -0.852*angstrom |  0.000*angstrom
%

EigenSolver = chebyshev_filter
ParStates = 2
ParDomains = 2

ExtraStates = 2

FilterPotentials = filter_none

SCFCalculatePartialCharges = yes

ExperimentalFeatures = yes
MixField = density

PoissonSolver = isf

# If we don't set this, the degree is different for different parallelization
# leading to different values for serial and MPI runs
OptimizeChebyshevFilterDegree = no
