CalculationMode = test
testmode = helmholtz_decomposition

%Coordinates
"Na" | 0.0 | 0.0 |  0.0	
%

BoxShape = parallelepiped
Lsize = 0.5
Spacing = 0.05

DerivativesOrder = 4
PoissonSolver = cg
PoissonSolverMaxIter = 1000
SurfaceCorrection = no
HelmholtzEnforceCoulombGauge = yes
HelmholtzCoulombGaugeTolerance = 1e-9
