#Energy Ak(E)
#Number of points in energy window  1019
 0.000000000000E+00 -2.943453398574E-01  9.234820140579E-02
 0.000000000000E+00 -2.937250379716E-01  9.336414284848E-02
 0.000000000000E+00 -2.931047360858E-01  9.439889306271E-02
 0.000000000000E+00 -2.924844342001E-01  9.545294023273E-02
 0.000000000000E+00 -2.918641323143E-01  9.652678878387E-02
 0.000000000000E+00 -2.912438304285E-01  9.762096004075E-02
 0.000000000000E+00 -2.906235285428E-01  9.873599291689E-02
 0.000000000000E+00 -2.900032266570E-01  9.987244463756E-02
 0.000000000000E+00 -2.893829247712E-01  1.010308914976E-01
 0.000000000000E+00 -2.887626228855E-01  1.022119296564E-01
 0.000000000000E+00 -2.881423209997E-01  1.034161759716E-01
 0.000000000000E+00 -2.875220191140E-01  1.046442688743E-01
 0.000000000000E+00 -2.869017172282E-01  1.058968692880E-01
