CalculationMode = gs
Debug = info

dist = 1.834*angstrom

%Species
 'Mg' | species_pseudo | set | pseudodojo_lda
 'O'  | species_pseudo | set | standard | mass | 17.9991610
%

%Coordinates
 'Mg' | 0.0 |  dist/2 | 0.0
 'O'  | 0.0 | -dist/2 | 0.0
%

Spacing = 0.43
Radius = 6.0

PoissonSolver = isf
