CalculationMode = gs
FromScratch = yes
Dimensions = 2

lambda = 2.0
omega = 1/lambda^2

%Species
"qd" | species_user_defined | potential_formula | "0.5*omega^2*r^2" | valence | 2
%

%Coordinates
"qd" | 0 | 0
%

ExtraStates = 1

%Occupations
1 | 1
%

BoxShape = sphere
Radius = 10.0
Spacing = 0.2

XCFunctional = lda_x_2d + lda_c_2d_prm

MixField = density
