{
  "version": 4,
  "configurePresets": [
    {
      "name": "_native",
      "hidden": true,
      "cacheVariables": {
        "OCTOPUS_NATIVE": {
          "type": "BOOL",
          "value": true
        }
      }
    },
    {
      "name": "_serial",
      "hidden": true,
      "cacheVariables": {
        "OCTOPUS_MPI": {
          "type": "BOOL",
          "value": false
        },
        "OCTOPUS_OpenMP": {
          "type": "BOOL",
          "value": false
        },
        "OCTOPUS_ScaLAPACK": {
          "type": "BOOL",
          "value": false
        }
      }
    },
    {
      "name": "_openmp",
      "hidden": true,
      "inherits": [
        "_serial"
      ],
      "cacheVariables": {
        "OCTOPUS_OpenMP": {
          "type": "BOOL",
          "value": true
        }
      }
    },
    {
      "name": "_mpi",
      "hidden": true,
      "inherits": [
        "_serial"
      ],
      "cacheVariables": {
        "OCTOPUS_MPI": {
          "type": "BOOL",
          "value": true
        },
        "OCTOPUS_ScaLAPACK": {
          "type": "BOOL",
          "value": true
        }
      }
    },
    {
      "name": "_mpi+openmp",
      "hidden": true,
      "inherits": [
        "_openmp",
        "_mpi"
      ]
    },
    {
      "name": "_cuda",
      "hidden": true,
      "cacheVariables": {
        "OCTOPUS_CUDA": {
          "type": "BOOL",
          "value": true
        },
        "OCTOPUS_OpenCL": {
          "type": "BOOL",
          "value": false
        }
      }
    },
    {
      "name": "_opencl",
      "hidden": true,
      "cacheVariables": {
        "OCTOPUS_OpenCL": {
          "type": "BOOL",
          "value": true
        },
        "OCTOPUS_CUDA": {
          "type": "BOOL",
          "value": false
        }
      }
    },
    {
      "name": "_min",
      "hidden": true,
      "cacheVariables": {
        "CMAKE_DISABLE_FIND_PACKAGE_netCDF-Fortran": {
          "type": "BOOL",
          "value": true
        },
        "CMAKE_DISABLE_FIND_PACKAGE_ELPA": {
          "type": "BOOL",
          "value": true
        },
        "CMAKE_DISABLE_FIND_PACKAGE_DftbPlus": {
          "type": "BOOL",
          "value": true
        },
        "CMAKE_DISABLE_FIND_PACKAGE_CGAL": {
          "type": "BOOL",
          "value": true
        },
        "CMAKE_DISABLE_FIND_PACKAGE_NLopt": {
          "type": "BOOL",
          "value": true
        },
        "CMAKE_DISABLE_FIND_PACKAGE_GD": {
          "type": "BOOL",
          "value": true
        },
        "CMAKE_DISABLE_FIND_PACKAGE_libvdwxc": {
          "type": "BOOL",
          "value": true
        },
        "CMAKE_DISABLE_FIND_PACKAGE_nfft": {
          "type": "BOOL",
          "value": true
        },
        "CMAKE_DISABLE_FIND_PACKAGE_clfft": {
          "type": "BOOL",
          "value": true
        },
        "CMAKE_DISABLE_FIND_PACKAGE_pfft": {
          "type": "BOOL",
          "value": true
        },
        "CMAKE_DISABLE_FIND_PACKAGE_pnfft": {
          "type": "BOOL",
          "value": true
        },
        "CMAKE_DISABLE_FIND_PACKAGE_PSolver": {
          "type": "BOOL",
          "value": true
        },
        "CMAKE_DISABLE_FIND_PACKAGE_BerkleyGW": {
          "type": "BOOL",
          "value": true
        },
        "CMAKE_DISABLE_FIND_PACKAGE_METIS": {
          "type": "BOOL",
          "value": false
        },
        "CMAKE_DISABLE_FIND_PACKAGE_ParMETIS": {
          "type": "BOOL",
          "value": true
        },
        "CMAKE_DISABLE_FIND_PACKAGE_SPARSKIT": {
          "type": "BOOL",
          "value": true
        },
        "CMAKE_DISABLE_FIND_PACKAGE_etsf-io": {
          "type": "BOOL",
          "value": true
        }
      }
    },
    {
      "name": "_full",
      "inherits": [
        "_min"
      ],
      "hidden": true,
      "cacheVariables": {
        "CMAKE_DISABLE_FIND_PACKAGE_netCDF-Fortran": {
          "type": "BOOL",
          "value": false
        },
        "CMAKE_DISABLE_FIND_PACKAGE_DftbPlus": {
          "type": "BOOL",
          "value": false
        },
        "CMAKE_DISABLE_FIND_PACKAGE_CGAL": {
          "type": "BOOL",
          "value": false
        },
        "CMAKE_DISABLE_FIND_PACKAGE_NLopt": {
          "type": "BOOL",
          "value": false
        },
        "CMAKE_DISABLE_FIND_PACKAGE_GD": {
          "type": "BOOL",
          "value": false
        },
        "CMAKE_DISABLE_FIND_PACKAGE_libvdwxc": {
          "type": "BOOL",
          "value": false
        },
        "CMAKE_DISABLE_FIND_PACKAGE_nfft": {
          "type": "BOOL",
          "value": false
        },
        "CMAKE_DISABLE_FIND_PACKAGE_BerkleyGW": {
          "type": "BOOL",
          "value": false
        },
        "CMAKE_DISABLE_FIND_PACKAGE_SPARSKIT": {
          "type": "BOOL",
          "value": false
        },
        "CMAKE_DISABLE_FIND_PACKAGE_etsf-io": {
          "type": "BOOL",
          "value": false
        },
        "CMAKE_DISABLE_FIND_PACKAGE_PSolver": {
          "type": "BOOL",
          "value": false
        }
      }
    },
    {
      "name": "_unsupported",
      "hidden": true,
      "cacheVariables": {
        "CMAKE_DISABLE_FIND_PACKAGE_clfft": {
          "type": "BOOL",
          "value": false
        },
        "CMAKE_REQUIRE_FIND_PACKAGE_clfft": {
          "type": "BOOL",
          "value": true
        }
      }
    },
    {
      "name": "_full-mpi",
      "hidden": true,
      "inherits": [
        "_full"
      ],
      "cacheVariables": {
        "CMAKE_DISABLE_FIND_PACKAGE_ELPA": {
          "type": "BOOL",
          "value": false
        },
        "CMAKE_DISABLE_FIND_PACKAGE_pfft": {
          "type": "BOOL",
          "value": false
        },
        "CMAKE_DISABLE_FIND_PACKAGE_pnfft": {
          "type": "BOOL",
          "value": false
        },
        "CMAKE_DISABLE_FIND_PACKAGE_ParMETIS": {
          "type": "BOOL",
          "value": false
        }
      }
    },
    {
      "name": "_full-required",
      "hidden": true,
      "inherits": [
        "_full"
      ],
      "cacheVariables": {
        "CMAKE_REQUIRE_FIND_PACKAGE_netCDF-Fortran": {
          "type": "BOOL",
          "value": true
        },
        "CMAKE_REQUIRE_FIND_PACKAGE_DftbPlus": {
          "type": "BOOL",
          "value": true
        },
        "CMAKE_REQUIRE_FIND_PACKAGE_CGAL": {
          "type": "BOOL",
          "value": true
        },
        "CMAKE_REQUIRE_FIND_PACKAGE_NLopt": {
          "type": "BOOL",
          "value": true
        },
        "CMAKE_REQUIRE_FIND_PACKAGE_GD": {
          "type": "BOOL",
          "value": true
        },
        "CMAKE_REQUIRE_FIND_PACKAGE_libvdwxc": {
          "type": "BOOL",
          "value": true
        },
        "CMAKE_REQUIRE_FIND_PACKAGE_nfft": {
          "type": "BOOL",
          "value": true
        },
        "CMAKE_REQUIRE_FIND_PACKAGE_BerkleyGW": {
          "type": "BOOL",
          "value": true
        },
        "CMAKE_REQUIRE_FIND_PACKAGE_SPARSKIT": {
          "type": "BOOL",
          "value": true
        },
        "CMAKE_REQUIRE_FIND_PACKAGE_etsf-io": {
          "type": "BOOL",
          "value": true
        },
        "CMAKE_REQUIRE_FIND_PACKAGE_PSolver": {
          "type": "BOOL",
          "value": true
        }
      }
    },
    {
      "name": "_full-mpi-required",
      "hidden": true,
      "inherits": [
        "_full-mpi",
        "_full-required"
      ],
      "cacheVariables": {
        "CMAKE_REQUIRE_FIND_PACKAGE_ELPA": {
          "type": "BOOL",
          "value": true
        },
        "CMAKE_REQUIRE_FIND_PACKAGE_pfft": {
          "type": "BOOL",
          "value": true
        },
        "CMAKE_REQUIRE_FIND_PACKAGE_pnfft": {
          "type": "BOOL",
          "value": true
        },
        "CMAKE_REQUIRE_FIND_PACKAGE_ParMETIS": {
          "type": "BOOL",
          "value": true
        }
      }
    }
  ]
}
