CalculationMode = td
FromScratch = yes

Dimensions = 1
PeriodicDimensions = 1

a = 3
Spacing = 0.5
%LatticeParameters
 a
%

%Species
"Hydrogen1D" | species_soft_coulomb | softening | 1 | valence | 1
%

%Coordinates
"Hydrogen1D" | 0
%

SpinComponents = spinors

%KPointsGrid
 100
%


ExperimentalFeatures = yes
TDDeltaStrength = 0.05
TDDeltaStrengthMode = kick_magnon
%TDReducedMomentumTransfer
 0.5
%
%TDEasyAxis
 0 | 0 | 1
%
TDPolarizationDirection = 3
TDTimeStep = 0.1
TDPropagator = aetrs
TDExponentialMethod = lanczos
TDExpOrder = 16
TDPropagationTime = 5
RestartWriteInterval = 100
SpiralBoundaryCondition = yes

%TDOutput
 total_magnetization
 energy
%

PropagationSpectrumMaxEnergy = 1*eV
